[
  {
    "board": "703090000400008276120600349070860000000510900009204831000025700007086400900000608",
    "difficulty": "easy"
  },
  {
    "board": "000000009000601700800302046209006530103978000040000010000005293007029000900000005",
    "difficulty": "easy"
  },
  {
    "board": "300400120000500980298310560027900030036042001000673200080100005000008600100000498",
    "difficulty": "easy"
  },
  {
    "board": "500010002080700300200500860900360700000107000001092008059004006007005080300080007",
    "difficulty": "easy"
  },
  {
    "board": "900045600076020004080030500000290000049708060000413002000000281007009300834002700",
    "difficulty": "easy"
  },
  {
    "board": "400950080109000030600820004003407000040010060000502900500034009006000401020079006",
    "difficulty": "easy"
  },
  {
    "board": "308200006090000300000005210013650000500702009000018430069100000007000090800009701",
    "difficulty": "easy"
  },
  {
    "board": "702000000000705290040000607800020150030574060059030004407000080016302000000000902",
    "difficulty": "easy"
  },
  {
    "board": "300056200082090005070040600000930000053807020000514009000000971008003400745009800",
    "difficulty": "easy"
  },
  {
    "board": "000000107091807000705000020083010004050278060200060980040000702000106530109000000",
    "difficulty": "easy"
  },
  {
    "board": "400050001050300400800600230500720900000409000004081002085003007001004050700090003",
    "difficulty": "easy"
  },
  {
    "board": "003007008020950300048600001050090080000581000010030090600002410007049060100300800",
    "difficulty": "easy"
  },
  {
    "board": "400000000009102000280503006037200405000694301010000080345700000000450900700000004",
    "difficulty": "easy"
  },
  {
    "board": "300560080205000100400890003001307000030020040000609500600013005004000302090075004",
    "difficulty": "easy"
  },
  {
    "board": "500000004000430600143500000080000020000964108015700403720301009006807000400000000",
    "difficulty": "easy"
  }
]